turn WHITE
continuing_sequence_of_beats false
board 20
    BLACK PEON 0 1
    WHITE PEON 0 5
    WHITE PEON 0 7
    BLACK PEON 1 0
    BLACK PEON 1 2
    WHITE PEON 1 6
    BLACK PEON 2 1
    WHITE PEON 2 5
    WHITE PEON 2 7
    BLACK PEON 3 0
    BLACK PEON 3 2
    WHITE PEON 3 6
    BLACK PEON 4 1
    WHITE PEON 4 7
    BLACK PEON 4 3
    BLACK PEON 5 0
    WHITE PEON 6 7
    BLACK PEON 7 0
    WHITE PEON 7 6
    WHITE PEON 7 4
trashes 4
    BLACK PEON 4 5
    BLACK PEON 4 3
    WHITE PEON 6 3
    WHITE PEON 5 2
